<?xml version="1.0" encoding="UTF-8"?>
<!DOCTYPE svg PUBLIC "-//W3C//DTD SVG 1.1 Tiny//EN" "http://www.w3.org/Graphics/SVG/1.1/DTD/svg11-tiny.dtd">

<!--======================================================================-->
<!--=  Copyright 2000 World Wide Web Consortium, (Massachusetts          =-->
<!--=  Institute of Technology, Institut National de Recherche en        =-->
<!--=  Informatique et en Automatique, Keio University). All Rights      =-->
<!--=  Reserved. See http://www.w3.org/Consortium/Legal/.                =-->
<!--======================================================================-->
<!-- ===================================================================== -->
<!-- path-lines-BE-01.svg                                                  -->
<!-- renamed for 1.1 suite to paths-data-06-t.svg                          -->
<!-- Author : Lofton Henderson, 20-Jan-2000 (from Mark Sgarlato, Adobe).   -->
<!--======================================================================-->
<svg version="1.1" baseProfile="tiny" xmlns="http://www.w3.org/2000/svg" xmlns:xlink="http://www.w3.org/1999/xlink"  id="svg-root" width="100%" height="100%" viewBox="0 0 480 360">
  <SVGTestCase xmlns="http://www.w3.org/2000/02/svg/testsuite/description/" >
		<OperatorScript version="$Revision: 1.6 $" testname="paths-data-06-t.svg">
      <Paragraph>
Verify the basic capability to handle the 'path' element, and its data attribute (d)
in combination with the straight-line path commands.
Two pairs of staircase figures are drawn using 
respectively M,H,V,Z and m,h,v,z. The shapes in each pair are identical, with one stroked and
one filled.  
      </Paragraph>
      <Paragraph>
The rendered picture should match the reference image exactly, except for possible
variations in the labelling text (per CSS2 rules).  
      </Paragraph>
      <Paragraph>
The test uses the 'path' element, as well as basic fill (solid primary colors), 
stroke (black 1-pixel lines), font-family (Helvetica) and font-size properties.
      </Paragraph>
    </OperatorScript>
  </SVGTestCase>
	<title id="test-title">paths-data-06-t</title>
	<desc id="test-desc">Test that viewer has the basic capability to handle the &lt;path&gt; element and data (d) attribute in combination with the moveto, lineto, and closepath commands - M, L, Z, m, l, and z.</desc>
	<!--======================================================================-->
	<!--Content of Test Case follows...                  =====================-->
	<!--======================================================================-->
	<g id="test-body-content">
    <g transform="scale(1.8) translate(-200, 0)">
		<!-- ====================================================================== -->
		<!-- First Group of Stairs using M, H, V & Z commands====================== -->
		<!-- ====================================================================== -->
		<text font-family="Helvetica" font-size="12"  x="288" y="30">M, H, V, H,</text>
		<text font-family="Helvetica" font-size="12"  x="288" y="46">V. H, V, H,</text>
		<text font-family="Helvetica" font-size="12"  x="304" y="62">V, Z</text>
		<path id="Stairs_stroke_MHVZ" fill="none" stroke="#000000"  d="   M  240.00000  56.00000    H  270.00000   V  86.00000    H  300.00000   V  116.00000    H  330.00000   V  146.00000    H  240.00000   V  56.00000    Z  "/>
		<rect x="238.00000" y="54.00000" width="4" height="4" fill="#FFFF00" stroke="none" />
		<rect x="268.00000" y="54.00000" width="4" height="4" fill="#FFFF00" stroke="none" />
		<rect x="268.00000" y="84.00000" width="4" height="4" fill="#FFFF00" stroke="none" />
		<rect x="298.00000" y="84.00000" width="4" height="4" fill="#FFFF00" stroke="none" />
		<rect x="298.00000" y="114.00000" width="4" height="4" fill="#FFFF00" stroke="none" />
		<rect x="328.00000" y="114.00000" width="4" height="4" fill="#FFFF00" stroke="none" />
		<rect x="328.00000" y="144.00000" width="4" height="4" fill="#FFFF00" stroke="none" />
		<rect x="238.00000" y="144.00000" width="4" height="4" fill="#FFFF00" stroke="none" />
		<path id="Stairs_fill_MHVZ" fill="#0000FF" stroke="none"  d="   M  350.00000  56.00000   H  380.00000   V  86.00000    H  410.00000   V  116.00000    H  440.00000   V  146.00000    H  350.00000   V  56.00000    Z  "/>
		<rect x="348.00000" y="54.00000" width="4" height="4" fill="#FFFF00" stroke="none" />
		<rect x="378.00000" y="54.00000" width="4" height="4" fill="#FFFF00" stroke="none" />
		<rect x="378.00000" y="84.00000" width="4" height="4" fill="#FFFF00" stroke="none" />
		<rect x="408.00000" y="84.00000" width="4" height="4" fill="#FFFF00" stroke="none" />
		<rect x="408.00000" y="114.00000" width="4" height="4" fill="#FFFF00" stroke="none" />
		<rect x="438.00000" y="114.00000" width="4" height="4" fill="#FFFF00" stroke="none" />
		<rect x="438.00000" y="144.00000" width="4" height="4" fill="#FFFF00" stroke="none" />
		<rect x="348.00000" y="144.00000" width="4" height="4" fill="#FFFF00" stroke="none" />
		<!-- ====================================================================== -->
        </g>
	</g>
	<text id="revision" x="10" y="340" font-size="40" stroke="none" fill="black">$Revision: 1.6 $</text>
	<rect id="test-frame" x="1" y="1" width="478" height="358" fill="none" stroke="#000000"/>
</svg>

