<?xml version="1.0" encoding="UTF-8"?>
<!DOCTYPE svg PUBLIC "-//W3C//DTD SVG 1.1 Tiny//EN" "http://www.w3.org/Graphics/SVG/1.1/DTD/svg11-tiny.dtd">

<!--======================================================================-->
<!--=  Copyright 2000 World Wide Web Consortium, (Massachusetts          =-->
<!--=  Institute of Technology, Institut National de Recherche en        =-->
<!--=  Informatique et en Automatique, Keio University). All Rights      =-->
<!--=  Reserved. See http://www.w3.org/Consortium/Legal/.                =-->
<!--======================================================================-->
<!-- ===================================================================== -->
<!--                                                                       -->
<!-- shapes-polyline-01-t.svg                                              -->
<!-- renamed for Tiny suite to shapes-polyline-01-t.svg                    -->
<!--                                                                       -->
<!-- Test that viewer has the basic capability to handle the 'polyline'    -->
<!-- element.                                                              -->
<!--                                                                       -->
<!-- Author :  Lofton Henderson, 25 March 2000                             -->
<!-- Revised for 1.1 : Tolga Capin 14-Feb-2002                             -->
<!-- Revised for Tiny: Takeshi Sagara 04-Jul-2002                          -->
<!--                                                                       -->
<!-- History:                                                              -->
<!--  25-Mar-2000, LH: create ser#1.                                       -->
<!--  03-Aug-2000, LH=" update DOCTYPE for CR DTD, 20000802" ser# .        -->
<!--  04-Jul-2002, TS add viewBox and comment out unreadable small texts.  -->
<!--                                                                       -->
<!-- ===================================================================== -->
<!--======================================================================-->
<!--= Note. After October 2000, revision history is kept as CVS 'commit' =-->
<!--= log messages, and therefore is no longer in the preceding preamble.=-->
<!--======================================================================-->
<svg version="1.1" baseProfile="tiny" xmlns="http://www.w3.org/2000/svg" xmlns:xlink="http://www.w3.org/1999/xlink"  id="svg-root" width="100%" height="100%" viewBox="0 0 480 360">

    	<SVGTestCase xmlns="http://www.w3.org/2000/02/svg/testsuite/description/">
		<OperatorScript version="$Revision: 1.6 $" testname="shapes-polyline-01-t.svg">
            <Paragraph>
                The rendered picture should match the reference image, except
                for possible variations in the labelling text (per CSS2 rules).
            </Paragraph>
        	</OperatorScript>
    	</SVGTestCase>


	<title id="test-title">shapes-polyline-01-t</title>
	<desc id="test-desc">Test that viewer has the basic capability to handle the 'polyline' element.</desc>
	<!--======================================================================-->
	<!--Content of Test Case follows...                  =====================-->
	<!--======================================================================-->
	<g id="test-body-content">
		<!-- Test case label. -->
		<!-- ====================================================================== -->
		<!-- First two polylines.                                                   -->
		<!-- ====================================================================== -->
		<!-- Open sawtooth line. -->
		<polyline id="polyline-01" fill="none" stroke="#000000"  points="10,50,35,150,60,50,85,150,110,50,135,150"/>
		<!-- text font-family="Helvetica" font-size="12"  x="52" y="40">stroked</text-->
		<!-- Closed pentagon shaped polyline (5 segments). -->
		<polyline id="polyline-02" fill="none" stroke="blue" stroke-width="8"  points="220,50,267,84,249,140,190,140,172,84,220,50"/>
		<!--text font-family="Helvetica" font-size="12"  x="202" y="40">stroked</text-->
		<!-- ====================================================================== -->
		<!-- Third polyline.                                                        -->
		<!-- ====================================================================== -->
		<!-- The sawtooth again, polylines can be filled. -->
		<polyline id="polyline-03" fill="blue" stroke="#00FF00" stroke-width="4"  points="310,50,335,150,360,50,385,150,410,50,435,150"/>
		<!--text font-family="Helvetica" font-size="12"  x="340" y="40">filled &amp; stroked</text-->
		<!-- ====================================================================== -->
		<!-- Fourth and fifth polylines.                                             -->
		<!-- ====================================================================== -->
		<!-- An unclosed "septagon" shaped polyline (7th segment omitted). -->
		<polyline id="polyline-04" fill="none" stroke="red" stroke-width="8"  points="59,185,98,203,108,245,82,279,39,280,11,247,19,205"/>
		<!--text font-family="Helvetica" font-size="12"  x="36" y="175">stroked</text-->
		<!-- Same shape, filled, shows difference with 'polygon'. -->
		<polyline id="polyline-05" fill="#00FF00" stroke="#0000FF" stroke-width="8"  points="189,185,228,203,238,245,212,279,169,280,141,247,149,205"/>
		<!--text font-family="Helvetica" font-size="12"  x="148" y="175">filled &amp; stroked</text-->
		<!-- ====================================================================== -->
		<!-- Sixth polylines, irregular with both concave and convex angles.         -->
		<!-- ====================================================================== -->
		<polyline id="polyline-06" fill="#FF00FF" stroke="none" stroke-width="8"  points="270,225 300,245 320,225 340,245 280,280                   390,280 420,240 280,185"/>
		<!--text font-family="Helvetica" font-size="12"  x="330" y="175">filled</text-->
	</g>
	<text id="revision" x="10" y="340" font-size="40" stroke="none" fill="black">$Revision: 1.6 $</text>
	<rect id="test-frame" x="1" y="1" width="478" height="358" fill="none" stroke="#000000"/>
</svg>

