﻿<?xml version="1.0" encoding="UTF-8" standalone="no"?>
<!-- Created with Inkscape (http://www.inkscape.org/) -->
<svg
   xmlns:dc="http://purl.org/dc/elements/1.1/"
   xmlns:cc="http://creativecommons.org/ns#"
   xmlns:rdf="http://www.w3.org/1999/02/22-rdf-syntax-ns#"
   xmlns:svg="http://www.w3.org/2000/svg"
   xmlns="http://www.w3.org/2000/svg"
   xmlns:xlink="http://www.w3.org/1999/xlink"
   xmlns:sodipodi="http://sodipodi.sourceforge.net/DTD/sodipodi-0.dtd"
   xmlns:inkscape="http://www.inkscape.org/namespaces/inkscape"
   width="744.09448819"
   height="1052.3622047"
   id="svg2"
   sodipodi:version="0.32"
   inkscape:version="0.46"
   sodipodi:docname="drawing.svg"
   inkscape:output_extension="org.inkscape.output.svg.inkscape">
  <defs>
    <filter inkscape:collect="always" id="filter1">
      <feGaussianBlur inkscape:collect="always" stdDeviation="2" id="feGaussianBlur1" />
    </filter>

    <clipPath id="clipPath1" >
      <rect id="clipPath1rect1" x="100" y="100" width="25" height="25" />
    </clipPath>

<clipPath id="clip1">
    <polygon id="clip1Shape" points="100,10 40,180 190,60 10,60 160,180 100,10" stroke="blue" />        
</clipPath>

<clipPath id="clip2">
    <circle id="clip2Shape" cx="100" cy="100" r="65" />
</clipPath>

<!-- Intersection -->
<clipPath id="clipIntersection" clip-path="url(#clip1)">
    <use x="0" y="0" width="200" height="200" xlink:href="#clip2Shape" />
</clipPath>

  </defs>

  <g inkscape:label="Layer 1"
     inkscape:groupmode="layer"
     id="layer1">

   <rect x="10" y="10" width="180" height="180" fill="red" 
       clip-path="url(#clipIntersection)" transform="translate(200)" />
       
  </g>
</svg>
